Manufacturer,Type,Shot Make,Number Of Deaths
Pfizer/BioNTech,mRNA,Comirnaty,104506
Moderna,mRNA,SPIKEVAX,19715
Oxford-AstraZeneca,Genetically Modified Adenovirus,VAXZEVRIA,13896
Johnson&Johnson/Janssen,Genetically Modified Adenovirus,COVID-19 Vaccine Janssen,4088
Pfizer/BioNTech,mRNA,Comirnaty Original/Omicron BA.4/BA.5,1057
Pfizer/BioNTech,mRNA,Comirnaty Original/Omicron BA.1,672
Novavax,Saponin,Nuvaxovid,15
Moderna,mRNA,Spikevax bivalent Original/Omicron BA.1,9
